pums_single_year_data
…
[1] "year = 2022"
[1] "numeric_vars = AGEP, JWMNP"
[1] "categorical_vars = SEX"
[1] "geo = State"
[1] "subset = c(37, 36)"
[1] "key = Avaiable"

tbl <- .get_pums_tibble(url, show_call = TRUE)

[1] "PUMS URL: https://api.census.gov/data/2022/acs/acs1/pums?get=PWGTP%2CAGEP%2CJWMNP%2CSEX&key=2c10d8b7f4f3ca11ddef8ced42f41817fa34d9f7"

print(tbl)

# A tibble: 3,373,378 × 4
   PWGTP AGEP  JWMNP SEX  
   <chr> <chr> <chr> <chr>
 1 3     17    1     2    
 2 42    73    0     1    
 3 11    22    0     1    
 4 32    82    0     2    
 5 31    19    0     2    
 6 32    88    0     1    
 7 45    80    0     1    
 8 37    33    0     1    
 9 29    44    0     1    
10 55    36    0     1    
# ℹ 3,373,368 more rows
…
[1] "year = 2017"
[1] "numeric_vars = AGEP, PWGTP, JWAP, GRPIP"
[1] "categorical_vars = SEX, SCH, FER"
[1] "geo = State"
[1] "subset = c(50, 56)"
[1] "key = Avaiable"

tbl <- .get_pums_tibble(url, show_call = TRUE)

[1] "PUMS URL: https://api.census.gov/data/2022/acs/acs1/pums?get=PWGTP%2CAGEP%2CJWMNP%2CSEX&key=2c10d8b7f4f3ca11ddef8ced42f41817fa34d9f7"

print(tbl)

# A tibble: 3,373,378 × 4
   PWGTP AGEP  JWMNP SEX  
   <chr> <chr> <chr> <chr>
 1 3     17    1     2    
 2 42    73    0     1    
 3 11    22    0     1    
 4 32    82    0     2    
 5 31    19    0     2    
 6 32    88    0     1    
 7 45    80    0     1    
 8 37    33    0     1    
 9 29    44    0     1    
10 55    36    0     1    
# ℹ 3,373,368 more rows
…
